EESchema Schematic File Version 4
EELAYER 30 0
EELAYER END
$Descr A4 11693 8268
encoding utf-8
Sheet 1 1
Title "Class A Amplifier"
Date "2022-06-16"
Rev "A"
Comp ""
Comment1 ""
Comment2 ""
Comment3 ""
Comment4 ""
$EndDescr
$Comp
L Device:Q_NPN_EBC Q1
U 1 1 62AB4BD8
P 5400 3300
F 0 "Q1" H 5590 3346 50  0000 L CNN
F 1 "2N2222" H 5590 3255 50  0000 L CNN
F 2 "Package_TO_SOT_THT:TO-18-3" H 5600 3400 50  0001 C CNN
F 3 "~" H 5400 3300 50  0001 C CNN
	1    5400 3300
	1    0    0    -1  
$EndComp
$Comp
L Device:R R2
U 1 1 62ABA005
P 5000 3850
F 0 "R2" H 5070 3896 50  0000 L CNN
F 1 "850R" H 5070 3805 50  0000 L CNN
F 2 "Resistor_SMD:R_0603_1608Metric_Pad0.98x0.95mm_HandSolder" V 4930 3850 50  0001 C CNN
F 3 "~" H 5000 3850 50  0001 C CNN
	1    5000 3850
	1    0    0    -1  
$EndComp
$Comp
L Device:C C1
U 1 1 62ABA81E
P 4650 3200
F 0 "C1" V 4902 3200 50  0000 C CNN
F 1 "47u" V 4811 3200 50  0000 C CNN
F 2 "Capacitor_SMD:C_1210_3225Metric_Pad1.33x2.70mm_HandSolder" H 4688 3050 50  0001 C CNN
F 3 "~" H 4650 3200 50  0001 C CNN
	1    4650 3200
	0    -1   -1   0   
$EndComp
$Comp
L Device:R R1
U 1 1 62ABB29C
P 5000 2750
F 0 "R1" H 5070 2796 50  0000 L CNN
F 1 "10k" H 5070 2705 50  0000 L CNN
F 2 "Resistor_SMD:R_0603_1608Metric_Pad0.98x0.95mm_HandSolder" V 4930 2750 50  0001 C CNN
F 3 "~" H 5000 2750 50  0001 C CNN
	1    5000 2750
	1    0    0    -1  
$EndComp
$Comp
L Device:R R3
U 1 1 62ABD6D9
P 5500 2750
F 0 "R3" H 5570 2796 50  0000 L CNN
F 1 "1k" H 5570 2705 50  0000 L CNN
F 2 "Resistor_SMD:R_1206_3216Metric_Pad1.30x1.75mm_HandSolder" V 5430 2750 50  0001 C CNN
F 3 "~" H 5500 2750 50  0001 C CNN
	1    5500 2750
	1    0    0    -1  
$EndComp
$Comp
L Device:R R4
U 1 1 62ABDE64
P 5500 3850
F 0 "R4" H 5570 3896 50  0000 L CNN
F 1 "100R" H 5570 3805 50  0000 L CNN
F 2 "Resistor_SMD:R_0603_1608Metric_Pad0.98x0.95mm_HandSolder" V 5430 3850 50  0001 C CNN
F 3 "~" H 5500 3850 50  0001 C CNN
	1    5500 3850
	1    0    0    -1  
$EndComp
$Comp
L Device:C C3
U 1 1 62ABEB64
P 5900 3850
F 0 "C3" H 5785 3804 50  0000 R CNN
F 1 "1n" H 5785 3895 50  0000 R CNN
F 2 "Capacitor_SMD:C_0603_1608Metric_Pad1.08x0.95mm_HandSolder" H 5938 3700 50  0001 C CNN
F 3 "~" H 5900 3850 50  0001 C CNN
	1    5900 3850
	-1   0    0    1   
$EndComp
Wire Wire Line
	5000 2900 5000 3300
Wire Wire Line
	5000 3300 5200 3300
Wire Wire Line
	4900 3300 5000 3300
Connection ~ 5000 3300
Wire Wire Line
	5500 3100 5500 3000
Connection ~ 5500 3000
Wire Wire Line
	5500 3000 5500 2900
Wire Wire Line
	5900 3700 5900 3600
$Comp
L power:GND #PWR05
U 1 1 62AC41EE
P 5900 4000
F 0 "#PWR05" H 5900 3750 50  0001 C CNN
F 1 "GND" H 5905 3827 50  0000 C CNN
F 2 "" H 5900 4000 50  0001 C CNN
F 3 "" H 5900 4000 50  0001 C CNN
	1    5900 4000
	1    0    0    -1  
$EndComp
$Comp
L power:GND #PWR04
U 1 1 62AC62C5
P 5500 4000
F 0 "#PWR04" H 5500 3750 50  0001 C CNN
F 1 "GND" H 5505 3827 50  0000 C CNN
F 2 "" H 5500 4000 50  0001 C CNN
F 3 "" H 5500 4000 50  0001 C CNN
	1    5500 4000
	1    0    0    -1  
$EndComp
$Comp
L power:GND #PWR02
U 1 1 62AC675B
P 5000 4000
F 0 "#PWR02" H 5000 3750 50  0001 C CNN
F 1 "GND" H 5005 3827 50  0000 C CNN
F 2 "" H 5000 4000 50  0001 C CNN
F 3 "" H 5000 4000 50  0001 C CNN
	1    5000 4000
	1    0    0    -1  
$EndComp
$Comp
L power:+24V #PWR03
U 1 1 62AC6D55
P 5500 2600
F 0 "#PWR03" H 5500 2450 50  0001 C CNN
F 1 "+24V" H 5515 2773 50  0000 C CNN
F 2 "" H 5500 2600 50  0001 C CNN
F 3 "" H 5500 2600 50  0001 C CNN
	1    5500 2600
	1    0    0    -1  
$EndComp
$Comp
L power:+24V #PWR01
U 1 1 62AC7DE9
P 5000 2600
F 0 "#PWR01" H 5000 2450 50  0001 C CNN
F 1 "+24V" H 5015 2773 50  0000 C CNN
F 2 "" H 5000 2600 50  0001 C CNN
F 3 "" H 5000 2600 50  0001 C CNN
	1    5000 2600
	1    0    0    -1  
$EndComp
Text Label 4150 3300 0    50   ~ 0
Input
Text Label 6600 3000 2    50   ~ 0
Output
$Comp
L Connector:Conn_01x04_Male J1
U 1 1 62ACB367
P 7250 3700
F 0 "J1" H 7222 3674 50  0000 R CNN
F 1 "JST_VH4" H 7222 3583 50  0000 R CNN
F 2 "Connector_JST:JST_XH_S4B-XH-A_1x04_P2.50mm_Horizontal" H 7250 3700 50  0001 C CNN
F 3 "~" H 7250 3700 50  0001 C CNN
	1    7250 3700
	-1   0    0    -1  
$EndComp
Wire Wire Line
	6600 3000 6300 3000
Wire Wire Line
	4150 3300 4400 3300
$Comp
L power:+24V #PWR06
U 1 1 62ACDEF0
P 6650 3500
F 0 "#PWR06" H 6650 3350 50  0001 C CNN
F 1 "+24V" H 6665 3673 50  0000 C CNN
F 2 "" H 6650 3500 50  0001 C CNN
F 3 "" H 6650 3500 50  0001 C CNN
	1    6650 3500
	1    0    0    -1  
$EndComp
Text Label 6750 3800 0    50   ~ 0
Output
Text Label 6750 3900 0    50   ~ 0
Input
$Comp
L power:GND #PWR07
U 1 1 62ACEB68
P 6650 3800
F 0 "#PWR07" H 6650 3550 50  0001 C CNN
F 1 "GND" H 6655 3627 50  0000 C CNN
F 2 "" H 6650 3800 50  0001 C CNN
F 3 "" H 6650 3800 50  0001 C CNN
	1    6650 3800
	1    0    0    -1  
$EndComp
Wire Wire Line
	6650 3500 6650 3600
Wire Wire Line
	7050 3800 6750 3800
Wire Wire Line
	7050 3700 6650 3700
Wire Wire Line
	6650 3700 6650 3800
Wire Wire Line
	6750 3900 7050 3900
Wire Wire Line
	6650 3600 7050 3600
Wire Wire Line
	5500 3500 5500 3600
Wire Wire Line
	5500 3600 5900 3600
Connection ~ 5500 3600
Wire Wire Line
	5500 3600 5500 3700
Wire Wire Line
	5000 3300 5000 3700
$Comp
L Device:C C4
U 1 1 62ADC098
P 6050 2900
F 0 "C4" V 5798 2900 50  0000 C CNN
F 1 "47u" V 5889 2900 50  0000 C CNN
F 2 "Capacitor_SMD:C_1210_3225Metric_Pad1.33x2.70mm_HandSolder" H 6088 2750 50  0001 C CNN
F 3 "~" H 6050 2900 50  0001 C CNN
	1    6050 2900
	0    1    1    0   
$EndComp
$Comp
L Device:C C2
U 1 1 62ADD258
P 4650 3400
F 0 "C2" V 4400 3400 50  0000 C CNN
F 1 "47u" V 4500 3400 50  0000 C CNN
F 2 "Capacitor_SMD:C_1210_3225Metric_Pad1.33x2.70mm_HandSolder" H 4688 3250 50  0001 C CNN
F 3 "~" H 4650 3400 50  0001 C CNN
	1    4650 3400
	0    -1   -1   0   
$EndComp
$Comp
L Device:C C5
U 1 1 62ADFC43
P 6050 3100
F 0 "C5" V 6300 3100 50  0000 C CNN
F 1 "47u" V 6200 3100 50  0000 C CNN
F 2 "Capacitor_SMD:C_1210_3225Metric_Pad1.33x2.70mm_HandSolder" H 6088 2950 50  0001 C CNN
F 3 "~" H 6050 3100 50  0001 C CNN
	1    6050 3100
	0    1    1    0   
$EndComp
Wire Wire Line
	6300 3000 6300 2900
Wire Wire Line
	6300 2900 6200 2900
Wire Wire Line
	6300 3000 6300 3100
Wire Wire Line
	6300 3100 6200 3100
Connection ~ 6300 3000
Wire Wire Line
	5900 3100 5800 3100
Wire Wire Line
	5900 2900 5800 2900
Wire Wire Line
	5800 2900 5800 3000
Wire Wire Line
	5800 3000 5800 3100
Connection ~ 5800 3000
Wire Wire Line
	5500 3000 5800 3000
Wire Wire Line
	4800 3200 4900 3200
Wire Wire Line
	4900 3200 4900 3300
Wire Wire Line
	4900 3300 4900 3400
Wire Wire Line
	4900 3400 4800 3400
Connection ~ 4900 3300
Wire Wire Line
	4500 3400 4400 3400
Wire Wire Line
	4400 3400 4400 3300
Wire Wire Line
	4400 3300 4400 3200
Wire Wire Line
	4400 3200 4500 3200
Connection ~ 4400 3300
Text Label 5050 3300 0    50   ~ 0
Base
Text Label 5500 3000 2    50   ~ 0
Collector
Text Label 5500 3600 2    50   ~ 0
Emitter
$Comp
L Device:C C6
U 1 1 62AE9A50
P 7000 3000
F 0 "C6" H 7115 3046 50  0000 L CNN
F 1 "10u" H 7115 2955 50  0000 L CNN
F 2 "Capacitor_SMD:C_0805_2012Metric_Pad1.18x1.45mm_HandSolder" H 7038 2850 50  0001 C CNN
F 3 "~" H 7000 3000 50  0001 C CNN
	1    7000 3000
	1    0    0    -1  
$EndComp
$Comp
L power:+24V #PWR0101
U 1 1 62AEDBDA
P 7000 2850
F 0 "#PWR0101" H 7000 2700 50  0001 C CNN
F 1 "+24V" H 7015 3023 50  0000 C CNN
F 2 "" H 7000 2850 50  0001 C CNN
F 3 "" H 7000 2850 50  0001 C CNN
	1    7000 2850
	1    0    0    -1  
$EndComp
$Comp
L power:GND #PWR0102
U 1 1 62AEE12A
P 7000 3150
F 0 "#PWR0102" H 7000 2900 50  0001 C CNN
F 1 "GND" H 7005 2977 50  0000 C CNN
F 2 "" H 7000 3150 50  0001 C CNN
F 3 "" H 7000 3150 50  0001 C CNN
	1    7000 3150
	1    0    0    -1  
$EndComp
$EndSCHEMATC
