%TF.GenerationSoftware,KiCad,Pcbnew,(5.1.9)-1*%
%TF.CreationDate,2022-06-16T21:51:52+02:00*%
%TF.ProjectId,Class_A_Amp,436c6173-735f-4415-9f41-6d702e6b6963,rev?*%
%TF.SameCoordinates,Original*%
%TF.FileFunction,Soldermask,Top*%
%TF.FilePolarity,Negative*%
%FSLAX46Y46*%
G04 Gerber Fmt 4.6, Leading zero omitted, Abs format (unit mm)*
G04 Created by KiCad (PCBNEW (5.1.9)-1) date 2022-06-16 21:51:52*
%MOMM*%
%LPD*%
G01*
G04 APERTURE LIST*
%ADD10O,1.200000X1.200000*%
%ADD11O,1.200000X1.600000*%
%ADD12O,1.950000X1.700000*%
G04 APERTURE END LIST*
%TO.C,R3*%
G36*
G01*
X139400000Y-122375000D02*
X139400000Y-123625000D01*
G75*
G02*
X139150000Y-123875000I-250000J0D01*
G01*
X138350000Y-123875000D01*
G75*
G02*
X138100000Y-123625000I0J250000D01*
G01*
X138100000Y-122375000D01*
G75*
G02*
X138350000Y-122125000I250000J0D01*
G01*
X139150000Y-122125000D01*
G75*
G02*
X139400000Y-122375000I0J-250000D01*
G01*
G37*
G36*
G01*
X142500000Y-122375000D02*
X142500000Y-123625000D01*
G75*
G02*
X142250000Y-123875000I-250000J0D01*
G01*
X141450000Y-123875000D01*
G75*
G02*
X141200000Y-123625000I0J250000D01*
G01*
X141200000Y-122375000D01*
G75*
G02*
X141450000Y-122125000I250000J0D01*
G01*
X142250000Y-122125000D01*
G75*
G02*
X142500000Y-122375000I0J-250000D01*
G01*
G37*
%TD*%
%TO.C,C6*%
G36*
G01*
X139065000Y-119550000D02*
X138115000Y-119550000D01*
G75*
G02*
X137865000Y-119300000I0J250000D01*
G01*
X137865000Y-118625000D01*
G75*
G02*
X138115000Y-118375000I250000J0D01*
G01*
X139065000Y-118375000D01*
G75*
G02*
X139315000Y-118625000I0J-250000D01*
G01*
X139315000Y-119300000D01*
G75*
G02*
X139065000Y-119550000I-250000J0D01*
G01*
G37*
G36*
G01*
X139065000Y-121625000D02*
X138115000Y-121625000D01*
G75*
G02*
X137865000Y-121375000I0J250000D01*
G01*
X137865000Y-120700000D01*
G75*
G02*
X138115000Y-120450000I250000J0D01*
G01*
X139065000Y-120450000D01*
G75*
G02*
X139315000Y-120700000I0J-250000D01*
G01*
X139315000Y-121375000D01*
G75*
G02*
X139065000Y-121625000I-250000J0D01*
G01*
G37*
%TD*%
%TO.C,C5*%
G36*
G01*
X146100000Y-124649999D02*
X146100000Y-126850001D01*
G75*
G02*
X145850001Y-127100000I-249999J0D01*
G01*
X145024999Y-127100000D01*
G75*
G02*
X144775000Y-126850001I0J249999D01*
G01*
X144775000Y-124649999D01*
G75*
G02*
X145024999Y-124400000I249999J0D01*
G01*
X145850001Y-124400000D01*
G75*
G02*
X146100000Y-124649999I0J-249999D01*
G01*
G37*
G36*
G01*
X149225000Y-124649999D02*
X149225000Y-126850001D01*
G75*
G02*
X148975001Y-127100000I-249999J0D01*
G01*
X148149999Y-127100000D01*
G75*
G02*
X147900000Y-126850001I0J249999D01*
G01*
X147900000Y-124649999D01*
G75*
G02*
X148149999Y-124400000I249999J0D01*
G01*
X148975001Y-124400000D01*
G75*
G02*
X149225000Y-124649999I0J-249999D01*
G01*
G37*
%TD*%
%TO.C,C4*%
G36*
G01*
X146100000Y-127899999D02*
X146100000Y-130100001D01*
G75*
G02*
X145850001Y-130350000I-249999J0D01*
G01*
X145024999Y-130350000D01*
G75*
G02*
X144775000Y-130100001I0J249999D01*
G01*
X144775000Y-127899999D01*
G75*
G02*
X145024999Y-127650000I249999J0D01*
G01*
X145850001Y-127650000D01*
G75*
G02*
X146100000Y-127899999I0J-249999D01*
G01*
G37*
G36*
G01*
X149225000Y-127899999D02*
X149225000Y-130100001D01*
G75*
G02*
X148975001Y-130350000I-249999J0D01*
G01*
X148149999Y-130350000D01*
G75*
G02*
X147900000Y-130100001I0J249999D01*
G01*
X147900000Y-127899999D01*
G75*
G02*
X148149999Y-127650000I249999J0D01*
G01*
X148975001Y-127650000D01*
G75*
G02*
X149225000Y-127899999I0J-249999D01*
G01*
G37*
%TD*%
%TO.C,C2*%
G36*
G01*
X146100000Y-118149999D02*
X146100000Y-120350001D01*
G75*
G02*
X145850001Y-120600000I-249999J0D01*
G01*
X145024999Y-120600000D01*
G75*
G02*
X144775000Y-120350001I0J249999D01*
G01*
X144775000Y-118149999D01*
G75*
G02*
X145024999Y-117900000I249999J0D01*
G01*
X145850001Y-117900000D01*
G75*
G02*
X146100000Y-118149999I0J-249999D01*
G01*
G37*
G36*
G01*
X149225000Y-118149999D02*
X149225000Y-120350001D01*
G75*
G02*
X148975001Y-120600000I-249999J0D01*
G01*
X148149999Y-120600000D01*
G75*
G02*
X147900000Y-120350001I0J249999D01*
G01*
X147900000Y-118149999D01*
G75*
G02*
X148149999Y-117900000I249999J0D01*
G01*
X148975001Y-117900000D01*
G75*
G02*
X149225000Y-118149999I0J-249999D01*
G01*
G37*
%TD*%
%TO.C,R4*%
G36*
G01*
X140537500Y-119575000D02*
X140062500Y-119575000D01*
G75*
G02*
X139825000Y-119337500I0J237500D01*
G01*
X139825000Y-118837500D01*
G75*
G02*
X140062500Y-118600000I237500J0D01*
G01*
X140537500Y-118600000D01*
G75*
G02*
X140775000Y-118837500I0J-237500D01*
G01*
X140775000Y-119337500D01*
G75*
G02*
X140537500Y-119575000I-237500J0D01*
G01*
G37*
G36*
G01*
X140537500Y-121400000D02*
X140062500Y-121400000D01*
G75*
G02*
X139825000Y-121162500I0J237500D01*
G01*
X139825000Y-120662500D01*
G75*
G02*
X140062500Y-120425000I237500J0D01*
G01*
X140537500Y-120425000D01*
G75*
G02*
X140775000Y-120662500I0J-237500D01*
G01*
X140775000Y-121162500D01*
G75*
G02*
X140537500Y-121400000I-237500J0D01*
G01*
G37*
%TD*%
%TO.C,R2*%
G36*
G01*
X143987500Y-118775000D02*
X143512500Y-118775000D01*
G75*
G02*
X143275000Y-118537500I0J237500D01*
G01*
X143275000Y-118037500D01*
G75*
G02*
X143512500Y-117800000I237500J0D01*
G01*
X143987500Y-117800000D01*
G75*
G02*
X144225000Y-118037500I0J-237500D01*
G01*
X144225000Y-118537500D01*
G75*
G02*
X143987500Y-118775000I-237500J0D01*
G01*
G37*
G36*
G01*
X143987500Y-120600000D02*
X143512500Y-120600000D01*
G75*
G02*
X143275000Y-120362500I0J237500D01*
G01*
X143275000Y-119862500D01*
G75*
G02*
X143512500Y-119625000I237500J0D01*
G01*
X143987500Y-119625000D01*
G75*
G02*
X144225000Y-119862500I0J-237500D01*
G01*
X144225000Y-120362500D01*
G75*
G02*
X143987500Y-120600000I-237500J0D01*
G01*
G37*
%TD*%
%TO.C,R1*%
G36*
G01*
X143987500Y-122075000D02*
X143512500Y-122075000D01*
G75*
G02*
X143275000Y-121837500I0J237500D01*
G01*
X143275000Y-121337500D01*
G75*
G02*
X143512500Y-121100000I237500J0D01*
G01*
X143987500Y-121100000D01*
G75*
G02*
X144225000Y-121337500I0J-237500D01*
G01*
X144225000Y-121837500D01*
G75*
G02*
X143987500Y-122075000I-237500J0D01*
G01*
G37*
G36*
G01*
X143987500Y-123900000D02*
X143512500Y-123900000D01*
G75*
G02*
X143275000Y-123662500I0J237500D01*
G01*
X143275000Y-123162500D01*
G75*
G02*
X143512500Y-122925000I237500J0D01*
G01*
X143987500Y-122925000D01*
G75*
G02*
X144225000Y-123162500I0J-237500D01*
G01*
X144225000Y-123662500D01*
G75*
G02*
X143987500Y-123900000I-237500J0D01*
G01*
G37*
%TD*%
D10*
%TO.C,Q1*%
X141360000Y-126070000D03*
X142630000Y-127340000D03*
D11*
X141360000Y-128610000D03*
%TD*%
D12*
%TO.C,J1*%
X152290000Y-120510000D03*
X152290000Y-123010000D03*
X152290000Y-125510000D03*
G36*
G01*
X153015000Y-128860000D02*
X151565000Y-128860000D01*
G75*
G02*
X151315000Y-128610000I0J250000D01*
G01*
X151315000Y-127410000D01*
G75*
G02*
X151565000Y-127160000I250000J0D01*
G01*
X153015000Y-127160000D01*
G75*
G02*
X153265000Y-127410000I0J-250000D01*
G01*
X153265000Y-128610000D01*
G75*
G02*
X153015000Y-128860000I-250000J0D01*
G01*
G37*
%TD*%
%TO.C,C3*%
G36*
G01*
X141562500Y-120325000D02*
X142037500Y-120325000D01*
G75*
G02*
X142275000Y-120562500I0J-237500D01*
G01*
X142275000Y-121162500D01*
G75*
G02*
X142037500Y-121400000I-237500J0D01*
G01*
X141562500Y-121400000D01*
G75*
G02*
X141325000Y-121162500I0J237500D01*
G01*
X141325000Y-120562500D01*
G75*
G02*
X141562500Y-120325000I237500J0D01*
G01*
G37*
G36*
G01*
X141562500Y-118600000D02*
X142037500Y-118600000D01*
G75*
G02*
X142275000Y-118837500I0J-237500D01*
G01*
X142275000Y-119437500D01*
G75*
G02*
X142037500Y-119675000I-237500J0D01*
G01*
X141562500Y-119675000D01*
G75*
G02*
X141325000Y-119437500I0J237500D01*
G01*
X141325000Y-118837500D01*
G75*
G02*
X141562500Y-118600000I237500J0D01*
G01*
G37*
%TD*%
%TO.C,C1*%
G36*
G01*
X146100000Y-121399999D02*
X146100000Y-123600001D01*
G75*
G02*
X145850001Y-123850000I-249999J0D01*
G01*
X145024999Y-123850000D01*
G75*
G02*
X144775000Y-123600001I0J249999D01*
G01*
X144775000Y-121399999D01*
G75*
G02*
X145024999Y-121150000I249999J0D01*
G01*
X145850001Y-121150000D01*
G75*
G02*
X146100000Y-121399999I0J-249999D01*
G01*
G37*
G36*
G01*
X149225000Y-121399999D02*
X149225000Y-123600001D01*
G75*
G02*
X148975001Y-123850000I-249999J0D01*
G01*
X148149999Y-123850000D01*
G75*
G02*
X147900000Y-123600001I0J249999D01*
G01*
X147900000Y-121399999D01*
G75*
G02*
X148149999Y-121150000I249999J0D01*
G01*
X148975001Y-121150000D01*
G75*
G02*
X149225000Y-121399999I0J-249999D01*
G01*
G37*
%TD*%
M02*
