%TF.GenerationSoftware,KiCad,Pcbnew,(5.1.9)-1*%
%TF.CreationDate,2022-06-16T21:51:52+02:00*%
%TF.ProjectId,Class_A_Amp,436c6173-735f-4415-9f41-6d702e6b6963,rev?*%
%TF.SameCoordinates,Original*%
%TF.FileFunction,Profile,NP*%
%FSLAX46Y46*%
G04 Gerber Fmt 4.6, Leading zero omitted, Abs format (unit mm)*
G04 Created by KiCad (PCBNEW (5.1.9)-1) date 2022-06-16 21:51:52*
%MOMM*%
%LPD*%
G01*
G04 APERTURE LIST*
%TA.AperFunction,Profile*%
%ADD10C,0.050000*%
%TD*%
G04 APERTURE END LIST*
D10*
X136000000Y-132000000D02*
X136000000Y-116000000D01*
X160000000Y-132000000D02*
X136000000Y-132000000D01*
X160000000Y-116000000D02*
X160000000Y-132000000D01*
X136000000Y-116000000D02*
X160000000Y-116000000D01*
M02*
